﻿[
  {
    "Id": 1,
    "Name": "Mission",
    "IsHumanVisible": true,
    "IsZombieVisible": false,
    "Description": "BlaBla",
    "StartTime": "2015-05-16T05:50:06",
    "EndTime": "2015-05-16T05:50:06",
    "lat": 59.9213924958088,
    "lng": 10.80503367970039,
    "GameId": 1
  },
  {
    "Id": 2,
    "Name": "Mission2",
    "IsHumanVisible": true,
    "IsZombieVisible": false,
    "Description": "BlaBla",
    "StartTime": "2015-05-16T05:50:06",
    "EndTime": "2015-05-16T05:50:06",
    "lat": 59.9213924958088,
    "lng": 10.80503367970039,
    "GameId": 4
  },
  {
    "Id": 3,
    "Name": "Mission3",
    "IsHumanVisible": true,
    "IsZombieVisible": false,
    "Description": "BlaBla",
    "StartTime": "2015-05-16T05:50:06",
    "EndTime": "2015-05-16T05:50:06",
    "lat": 59.9213924958088,
    "lng": 10.80503367970039,
    "GameId": 7
  }
]
