﻿[
  {
    "Id": 1,
    "Rank": "Knight",
    "SquadId": 1,
    "GameId": 1,
    "PlayerId": 1
  },
  {
    "Id": 2,
    "Rank": "Captain",
    "SquadId": 1,
    "GameId": 1,
    "PlayerId": 2
  },
  {
    "Id": 3,
    "Rank": "Rook",
    "SquadId": 1,
    "GameId": 1,
    "PlayerId": 3
  },
  {
    "Id": 4,
    "Rank": "Knight",
    "SquadId": 2,
    "GameId": 4,
    "PlayerId": 4
  },
  {
    "Id": 5,
    "Rank": "Captain",
    "SquadId": 2,
    "GameId": 4,
    "PlayerId": 5
  },
  {
    "Id": 6,
    "Rank": "Rook",
    "SquadId": 2,
    "GameId": 4,
    "PlayerId": 6
  },
  {
    "Id": 7,
    "Rank": "Knight",
    "SquadId": 2,
    "GameId": 7,
    "PlayerId": 7
  },
  {
    "Id": 8,
    "Rank": "Captain",
    "SquadId": 2,
    "GameId": 7,
    "PlayerId": 8
  },
  {
    "Id": 9,
    "Rank": "Rook",
    "SquadId": 2,
    "GameId": 7,
    "PlayerId": 9
  }
]