﻿[
  {
    "Id": 1,
    "FirstName": "Lars",
    "LastName": "Lien",
    "Username": "Admin",
    "Age": 22,
    "Email": "Email",
    "Gender": "Male",
    "Password": "Admin123@",
    "Phone": "12345678",
    "Role": "Admin"
  },
  {
    "Id": 2,
    "FirstName": "Mestan",
    "LastName": "Mestan",
    "Username": "User",
    "Age": 74,
    "Email": "mestan.pektemek@example.com",
    "Gender": "female",
    "Password": "User1234@",
    "Phone": "536-693-2163",
    "Role": "User"
  },
  {
    "Id": 3,
    "FirstName": "Léon",
    "LastName": "Reitsema",
    "Username": "Reitsema123",
    "Age": 26,
    "Email": "leon.reitsema@example.com",
    "Gender": "male",
    "Password": "User1234@",
    "Phone": "555-191-1532",
    "Role": "User"
  },
  {
    "Id": 4,
    "FirstName": "Norberta",
    "LastName": "Santos",
    "Username": "Norberta123",
    "Age": 46,
    "Email": "norberta.santos@example.com",
    "Gender": "female",
    "Password": "User1234@",
    "Phone": "985408-4599",
    "Role": "User"
  },
  {
    "Id": 5,
    "FirstName": "Greg",
    "LastName": "Hernandez",
    "Username": "Greg1",
    "Age": 38,
    "Email": "greg.hernandez@example.com",
    "Gender": "male",
    "Password": "User1234@",
    "Phone": "123456567",
    "Role": "User"
  },
  {
    "Id": 6,
    "FirstName": "Greg",
    "LastName": "Hernandez",
    "Username": "Greg12",
    "Age": 38,
    "Email": "greg.hernandez@example.com",
    "Gender": "male",
    "Password": "User1234@",
    "Phone": "123456567",
    "Role": "User"
  },
  {
    "Id": 7,
    "FirstName": "Greg",
    "LastName": "Hernandez",
    "Username": "Greg123",
    "Age": 38,
    "Email": "greg.hernandez@example.com",
    "Gender": "male",
    "Password": "User1234@",
    "Phone": "123456567",
    "Role": "User"
  },
  {
    "Id": 8,
    "FirstName": "Greg",
    "LastName": "Hernandez",
    "Username": "Greg1234",
    "Age": 38,
    "Email": "greg.hernandez@example.com",
    "Gender": "male",
    "Password": "User1234@",
    "Phone": "123456567",
    "Role": "User"
  },
  {
    "Id": 9,
    "FirstName": "Greg",
    "LastName": "Hernandez",
    "Username": "Greg12345",
    "Age": 38,
    "Email": "greg.hernandez@example.com",
    "Gender": "male",
    "Password": "User1234@",
    "Phone": "123456567",
    "Role": "User"
  },
  {
    "Id": 10,
    "FirstName": "Greg",
    "LastName": "Hernandez",
    "Username": "Greg123456",
    "Age": 38,
    "Email": "greg.hernandez@example.com",
    "Gender": "male",
    "Password": "User1234@",
    "Phone": "123456567",
    "Role": "User"
  }
]